control_tb.vcd
$date
	Tue Aug 26 13:29:42 2025
$end
$version
	Icarus Verilog
$end
$timescale
	1ps
$end
$scope module control_tb $end
$var wire 2 ! wb_sel [1:0] $end
$var wire 2 " op1_sel [1:0] $end
$var wire 1 # mem_write $end
$var wire 1 $ mem_read $end
$var wire 1 % jump $end
$var wire 3 & imm_sel [2:0] $end
$var wire 1 ' branch_sig $end
$var wire 1 ( alu_src $end
$var wire 2 ) alu_op [1:0] $end
$var parameter 2 * OP1_PC $end
$var parameter 2 + OP1_RS1 $end
$var parameter 2 , OP1_ZERO $end
$var reg 32 - instr [31:0] $end
$var reg 1 . is_alu_imm $end
$var reg 1 / is_alu_reg $end
$var reg 1 0 is_auipc $end
$var reg 1 1 is_branch $end
$var reg 1 2 is_jal $end
$var reg 1 3 is_jalr $end
$var reg 1 4 is_load $end
$var reg 1 5 is_lui $end
$var reg 1 6 is_store $end
$var reg 1 7 is_system $end
$var integer 32 8 failed [31:0] $end
$var integer 32 9 passed [31:0] $end
$scope function enc_b $end
$var reg 3 : f3 [2:0] $end
$var reg 13 ; imm13 [12:0] $end
$var reg 7 < opc [6:0] $end
$var reg 5 = rs1 [4:0] $end
$var reg 5 > rs2 [4:0] $end
$var reg 32 ? t [31:0] $end
$upscope $end
$scope function enc_i $end
$var reg 3 @ f3 [2:0] $end
$var reg 12 A imm12 [11:0] $end
$var reg 7 B opc [6:0] $end
$var reg 5 C rd [4:0] $end
$var reg 5 D rs1 [4:0] $end
$upscope $end
$scope function enc_j $end
$var reg 21 E imm21 [20:0] $end
$var reg 7 F opc [6:0] $end
$var reg 5 G rd [4:0] $end
$var reg 32 H t [31:0] $end
$upscope $end
$scope function enc_s $end
$var reg 3 I f3 [2:0] $end
$var reg 12 J imm12 [11:0] $end
$var reg 7 K opc [6:0] $end
$var reg 5 L rs1 [4:0] $end
$var reg 5 M rs2 [4:0] $end
$upscope $end
$scope function enc_u $end
$var reg 20 N imm20 [19:0] $end
$var reg 7 O opc [6:0] $end
$var reg 5 P rd [4:0] $end
$upscope $end
$scope module dut $end
$var wire 32 Q instr [31:0] $end
$var wire 1 . is_alu_imm $end
$var wire 1 / is_alu_reg $end
$var wire 1 0 is_auipc $end
$var wire 1 1 is_branch $end
$var wire 1 2 is_jal $end
$var wire 1 3 is_jalr $end
$var wire 1 4 is_load $end
$var wire 1 5 is_lui $end
$var wire 1 6 is_store $end
$var wire 1 7 is_system $end
$var wire 3 R funct3 [2:0] $end
$var parameter 32 S DATA_WIDTH $end
$var reg 2 T alu_op [1:0] $end
$var reg 1 ( alu_src $end
$var reg 1 ' branch_sig $end
$var reg 3 U imm_sel [2:0] $end
$var reg 1 % jump $end
$var reg 1 $ mem_read $end
$var reg 1 # mem_write $end
$var reg 2 V op1_sel [1:0] $end
$var reg 2 W wb_sel [1:0] $end
$upscope $end
$scope task expect_ctrl $end
$var reg 2 X exp_alu_op [1:0] $end
$var reg 1 Y exp_alu_src $end
$var reg 1 Z exp_branch_sig $end
$var reg 3 [ exp_imm_sel [2:0] $end
$var reg 1 \ exp_jump $end
$var reg 1 ] exp_mem_read $end
$var reg 1 ^ exp_mem_write $end
$var reg 2 _ exp_op1_sel [1:0] $end
$var reg 2 ` exp_wb_sel [1:0] $end
$var reg 512 a label [511:0] $end
$upscope $end
$scope task reset_inputs $end
$upscope $end
$upscope $end
$enddefinitions $end
$comment Show the parameter values. $end
$dumpall
b100000 S
b10 ,
b0 +
b1 *
$end
#0
$dumpvars
b101001000101101011101000111100101110000011001010011101000100000011001000110010101100011011011110110010001100101001000000110001001111001001000000110011001110101011011100110001101110100001100110010111101100110011101010110111001100011011101000011011100100000001010000110111101110000001100010011110101010010010100110011000100101001 a
b0 `
b0 _
0^
0]
0\
b111 [
0Z
0Y
b10 X
b0 W
b0 V
b111 U
b10 T
b0 R
b110011 Q
bx P
bx O
bx N
bx M
bx L
bx K
bx J
bx I
bx H
bx G
bx F
bx E
bx D
bx C
bx B
bx A
bx @
bx ?
bx >
bx =
bx <
bx ;
bx :
b0 9
b0 8
07
06
05
04
03
02
01
00
1/
0.
b110011 -
b10 )
0(
0'
b111 &
0%
0$
0#
b0 "
b0 !
$end
#1000
b0 &
b0 U
1(
b0 )
b0 T
b10000010100010001000100010010010011101000100000011000010110110001110101010111110110111101110000001111010011000000110000001011000010000001000001010011000101010101010011011100100110001100111101001100010010110000100000011011110111000000110001001111010101001001010011001100010010110000100000010101110100001001011111010000010100110001010101 a
b0 [
b0 X
1Y
b101 A
b10 D
b0 @
b1 C
b10011 B
1.
b10100010000000010010011 -
b10100010000000010010011 Q
0/
b1 9
#2000
b10 )
b10 T
b111 R
b0 &
b0 U
1(
b1000001010011100100010001001001001110100010000001100100011001010110001101101111011001000110010100100000011100000110000101110100011010000010110000100000011011110111000000110001001111010101001001010011001100010010110000100000010101110100001001011111010000010100110001010101 a
b10 X
b111 A
b111 @
b11100010111000010010011 -
b11100010111000010010011 Q
1.
b10 9
#3000
b110 R
b0 &
b0 U
b10 )
b10 T
1(
b10011110101001001001001001110100010000001100100011001010110001101101111011001000110010100100000011100000110000101110100011010000010110000100000011011110111000000110001001111010101001001010011001100010010110000100000010101110100001001011111010000010100110001010101 a
b1000 A
b110 @
b100000010110000010010011 -
b100000010110000010010011 Q
1.
b11 9
#4000
b100 R
b0 &
b0 U
b10 )
b10 T
1(
b1011000010011110101001001001001001110100010000001100100011001010110001101101111011001000110010100100000011100000110000101110100011010000010110000100000011011110111000000110001001111010101001001010011001100010010110000100000010101110100001001011111010000010100110001010101 a
b1001 A
b100 @
b100100010100000010010011 -
b100100010100000010010011 Q
1.
b100 9
#5000
b10 R
b0 &
b0 U
b10 )
b10 T
1(
b1010011010011000101010001001001001110100010000001100100011001010110001101101111011001000110010100100000011100000110000101110100011010000010110000100000011011110111000000110001001111010101001001010011001100010010110000100000010101110100001001011111010000010100110001010101 a
b1 A
b10 @
b100010010000010010011 -
b100010010000010010011 Q
1.
b101 9
#6000
b11 R
b0 &
b0 U
b10 )
b10 T
1(
b101001101001100010101000100100101010101001110100010000001100100011001010110001101101111011001000110010100100000011100000110000101110100011010000010110000100000011011110111000000110001001111010101001001010011001100010010110000100000010101110100001001011111010000010100110001010101 a
b11 @
b100010011000010010011 -
b100010011000010010011 Q
1.
b110 9
#7000
b1 R
b0 &
b0 U
b10 )
b10 T
1(
b1010011010011000100110001001001001110100010000001100100011001010110001101101111011001000110010100100000011100000110000101110100011010000010110000100000011011110111000000110001001111010101001001010011001100010010110000100000010101110100001001011111010000010100110001010101 a
b11 A
b1 @
b1100010001000010010011 -
b1100010001000010010011 Q
1.
b111 9
#8000
b101 R
b0 &
b0 U
b10 )
b10 T
1(
b1010011010100100100110001001001001110100010000001100100011001010110001101101111011001000110010100100000011100000110000101110100011010000010110000100000011011110111000000110001001111010101001001010011001100010010110000100000010101110100001001011111010000010100110001010101 a
b101 @
b1100010101000010010011 -
b1100010101000010010011 Q
1.
b1000 9
#9000
b0 &
b0 U
b10 )
b10 T
1(
b1010011010100100100000101001001001110100010000001100100011001010110001101101111011001000110010100100000011100000110000101110100011010000010110000100000011011110111000000110001001111010101001001010011001100010010110000100000010101110100001001011111010000010100110001010101 a
b10000000011 A
b1000000001100010101000010010011 -
b1000000001100010101000010010011 Q
1.
b1001 9
#10000
b10 R
b1 !
b1 W
1$
b0 &
b0 U
b0 )
b0 T
1(
b10011000100111101000001010001000010000000101000010011000101011100101001001110100010000001101101011001010110110101011111011100100110010101100001011001000011110100110001001011000010000001000001010011000101010101010011011100100110001100111101001100010010110000100000011011110111000000110001001111010101001001010011001100010010110000100000010101110100001001011111010011010100010101001101 a
b1 `
b0 X
1]
b10000 A
b100 D
b10 @
b110 C
b11 B
14
b1000000100010001100000011 -
b1000000100010001100000011 Q
0.
b1010 9
#11000
1#
b0 !
b0 W
b1 &
b1 U
1(
0$
b101001101010100010011110101001001000101001000000010100001010011010101110010100100111010001000000110110101100101011011010101111101110111011100100110100101110100011001010011110100110001001011000010000001000001010011000101010101010011011100100110001100111101001100010010110000100000011011110111000000110001001111010101001001010011001100010010110000100000010101110100001001011111010000010100110001010101 a
b0 `
b1 [
1^
0]
b10100 J
b111 M
b100 L
b10 I
b100011 K
16
b11100100010101000100011 -
b11100100010101000100011 Q
04
b1011 9
#12000
b0 R
b1 )
b1 T
1'
b10 &
b10 U
0(
0#
b10000100101001001000001010011100100001101001000001000000010100001000010010001010101000100101001001110100010000001100001011011000111010101011111011011110111000000111101001100000011000100101100001000000110001001110010011000010110111001100011011010000101111101110011011010010110011100111101001100010010110000100000011011110111000000110001001111010101001001010011001100010010110000100000010101110100001001011111010000010100110001010101 a
b10 [
b1 X
1Z
0Y
0^
b1100010000000001100011 ?
b1000 ;
b11 >
b10 =
b0 :
b1100011 <
11
b1100010000000001100011 -
b1100010000000001100011 Q
06
b1100 9
#13000
b1 "
b1 V
1(
1%
b10 !
b10 W
b100 &
b100 U
b0 )
b0 T
0'
b1001010010000010100110000111010001000000100000101001100010101010101001101110010011000110011110100110001001011000010000001101010011101010110110101110000001111010011000100101100001000000110111101110000001100010011110101010000010000110010110000100000010101110100001001011111010100000100001100110100 a
b1 _
b10 `
b100 [
b0 X
1\
0Z
1Y
b1000000000000000011101111 H
b10000 E
b1 G
b1101111 F
12
b1000000000000000011101111 -
b1000000000000000011101111 Q
01
b1101 9
#14000
b0 "
b0 V
b10 !
b10 W
b0 &
b0 U
1%
1(
b10010100100000101001100010100100011101000100000010000010100110001010101010100110111001001100011001111010011000100101100001000000110101001110101011011010111000000111101001100010010110000100000011011110111000000110001001111010101001001010011001100010010110000100000010101110100001001011111010100000100001100110100 a
b0 _
b0 [
b100 A
b10 D
b0 @
b1 C
b1100111 B
13
b10000010000000011100111 -
b10000010000000011100111 Q
02
b1110 9
#15000
b101 R
b10 "
b10 V
b0 !
b0 W
b11 &
b11 U
0%
1(
b100110001010101010010010011101000100000010000010100110001010101010100110111001001100011001111010011000100101100001000000110111101110000001100010011110101011010010001010101001001001111001011000010000001101001011011010110110100111101010101010010110000100000010101110100001001011111010000010100110001010101 a
b10 _
b0 `
b11 [
0\
b10010001101000101 N
b1010 P
b110111 O
15
b10010001101000101010100110111 -
b10010001101000101010100110111 Q
03
b1111 9
#16000
b110 R
b1 "
b1 V
b11 &
b11 U
1(
b100000101010101010010010101000001000011001110100010000001000001010011000101010101010011011100100110001100111101001100010010110000100000011011110111000000110001001111010101000001000011001011000010000001101001011011010110110100111101010101010010110000100000010101110100001001011111010000010100110001010101 a
b1 _
b100011010001010110 N
b1011 P
b10111 O
10
b100011010001010110010110010111 -
b100011010001010110010110010111 Q
05
b10000 9
#17000
b10001 9
