waves/cpu.vcd
$date
	Wed Aug 27 03:18:20 2025
$end
$version
	Icarus Verilog
$end
$timescale
	1ps
$end
$scope module cpu_tb $end
$var wire 32 ! debug_pc [31:0] $end
$var parameter 32 " ADDR_WIDTH $end
$var parameter 32 # END_SENTINEL $end
$var parameter 136 $ IMEM_FILE $end
$var parameter 32 % MAX_CYCLES $end
$var parameter 32 & STATUS_ADDR $end
$var parameter 32 ' STATUS_PASS $end
$var reg 1 ( clk $end
$var reg 1 ) finished $end
$var reg 1 * reset $end
$var reg 1 + status_ok $end
$var real 1 , cpi $end
$var integer 32 - cycles [31:0] $end
$var integer 32 . instr_count [31:0] $end
$scope module dut $end
$var wire 1 ( clk $end
$var wire 32 / debug_alu [31:0] $end
$var wire 32 0 debug_instr [31:0] $end
$var wire 1 * reset $end
$var wire 2 1 wb_sel [1:0] $end
$var wire 5 2 rs2 [4:0] $end
$var wire 5 3 rs1 [4:0] $end
$var wire 1 4 reg_write $end
$var wire 5 5 rd [4:0] $end
$var wire 7 6 opcode [6:0] $end
$var wire 2 7 op1_sel [1:0] $end
$var wire 1 8 mem_write $end
$var wire 1 9 mem_read $end
$var wire 1 : is_jalr $end
$var wire 1 ; is_jal $end
$var wire 1 < is_branch $end
$var wire 32 = instr [31:0] $end
$var wire 32 > imm_out [31:0] $end
$var wire 7 ? funct7 [6:0] $end
$var wire 3 @ funct3 [2:0] $end
$var wire 32 A debug_pc [31:0] $end
$var wire 32 B debug_alu_int [31:0] $end
$var wire 20 C csr [19:0] $end
$var wire 1 D alu_src $end
$var wire 4 E alu_ctrl [3:0] $end
$var parameter 32 F ADDR_WIDTH $end
$var parameter 32 G DATA_WIDTH $end
$var parameter 128 H DMEM_FILE $end
$var parameter 136 I IMEM_FILE $end
$scope module u_controller $end
$var wire 2 J wb_sel [1:0] $end
$var wire 5 K rs2 [4:0] $end
$var wire 5 L rs1 [4:0] $end
$var wire 1 4 reg_write $end
$var wire 5 M rd [4:0] $end
$var wire 7 N opcode [6:0] $end
$var wire 2 O op1_sel [1:0] $end
$var wire 1 8 mem_write $end
$var wire 1 9 mem_read $end
$var wire 1 : is_jalr $end
$var wire 1 ; is_jal $end
$var wire 1 < is_branch $end
$var wire 32 P instr [31:0] $end
$var wire 3 Q imm_sel [2:0] $end
$var wire 32 R imm_out [31:0] $end
$var wire 1 S funct7_5 $end
$var wire 7 T funct7 [6:0] $end
$var wire 3 U funct3 [2:0] $end
$var wire 20 V csr [19:0] $end
$var wire 1 D alu_src $end
$var wire 2 W alu_op [1:0] $end
$var wire 4 X alu_ctrl [3:0] $end
$scope module u_alu_control $end
$var wire 3 Y funct3 [2:0] $end
$var wire 1 S funct7_5 $end
$var wire 2 Z alu_op [1:0] $end
$var reg 4 [ alu_ctrl [3:0] $end
$upscope $end
$scope module u_decoder_glue $end
$var wire 2 \ wb_sel [1:0] $end
$var wire 5 ] rs2 [4:0] $end
$var wire 5 ^ rs1 [4:0] $end
$var wire 1 4 reg_write $end
$var wire 5 _ rd [4:0] $end
$var wire 2 ` op1_sel [1:0] $end
$var wire 1 8 mem_write $end
$var wire 1 9 mem_read $end
$var wire 1 a jump $end
$var wire 1 b is_system $end
$var wire 1 c is_store $end
$var wire 1 d is_lui $end
$var wire 1 e is_load $end
$var wire 1 : is_jalr $end
$var wire 1 ; is_jal $end
$var wire 1 < is_branch $end
$var wire 1 f is_auipc $end
$var wire 1 g is_alu_reg $end
$var wire 1 h is_alu_imm $end
$var wire 32 i instr [31:0] $end
$var wire 3 j imm_sel [2:0] $end
$var wire 32 k imm_out [31:0] $end
$var wire 1 l branch_sig $end
$var wire 1 D alu_src $end
$var wire 2 m alu_op [1:0] $end
$var parameter 32 n DATA_WIDTH $end
$scope module u_ctl $end
$var wire 1 b is_system $end
$var wire 1 c is_store $end
$var wire 1 d is_lui $end
$var wire 1 e is_load $end
$var wire 1 : is_jalr $end
$var wire 1 ; is_jal $end
$var wire 1 < is_branch $end
$var wire 1 f is_auipc $end
$var wire 1 g is_alu_reg $end
$var wire 1 h is_alu_imm $end
$var wire 32 o instr [31:0] $end
$var wire 3 p funct3 [2:0] $end
$var parameter 32 q DATA_WIDTH $end
$var reg 2 r alu_op [1:0] $end
$var reg 1 D alu_src $end
$var reg 1 l branch_sig $end
$var reg 3 s imm_sel [2:0] $end
$var reg 1 a jump $end
$var reg 1 9 mem_read $end
$var reg 1 8 mem_write $end
$var reg 2 t op1_sel [1:0] $end
$var reg 2 u wb_sel [1:0] $end
$upscope $end
$scope module u_dec $end
$var wire 1 : is_jalr $end
$var wire 1 4 reg_write $end
$var wire 7 v opcode [6:0] $end
$var wire 1 b is_system $end
$var wire 1 c is_store $end
$var wire 1 d is_lui $end
$var wire 1 e is_load $end
$var wire 1 ; is_jal $end
$var wire 1 < is_branch $end
$var wire 1 f is_auipc $end
$var wire 1 g is_alu_reg $end
$var wire 1 h is_alu_imm $end
$var wire 32 w instr [31:0] $end
$var parameter 32 x DATA_WIDTH $end
$upscope $end
$scope module u_imm $end
$var wire 3 y imm_sel [2:0] $end
$var wire 32 z u_imm [31:0] $end
$var wire 32 { s_imm [31:0] $end
$var wire 32 | j_imm [31:0] $end
$var wire 32 } instr [31:0] $end
$var wire 32 ~ i_imm [31:0] $end
$var wire 32 !" b_imm [31:0] $end
$var reg 32 "" imm_out [31:0] $end
$upscope $end
$upscope $end
$upscope $end
$scope module u_datapath $end
$var wire 4 #" alu_ctrl [3:0] $end
$var wire 1 D alu_src $end
$var wire 1 ( clk $end
$var wire 20 $" csr [19:0] $end
$var wire 32 %" debug_alu [31:0] $end
$var wire 32 &" debug_pc [31:0] $end
$var wire 3 '" funct3 [2:0] $end
$var wire 7 (" funct7 [6:0] $end
$var wire 32 )" imm_out [31:0] $end
$var wire 1 < is_branch $end
$var wire 1 ; is_jal $end
$var wire 1 : is_jalr $end
$var wire 1 9 mem_read $end
$var wire 1 8 mem_write $end
$var wire 2 *" op1_sel [1:0] $end
$var wire 7 +" opcode [6:0] $end
$var wire 5 ," rd [4:0] $end
$var wire 1 4 reg_write $end
$var wire 1 * reset $end
$var wire 5 -" rs1 [4:0] $end
$var wire 5 ." rs2 [4:0] $end
$var wire 2 /" wb_sel [1:0] $end
$var wire 32 0" wb_data [31:0] $end
$var wire 32 1" rs2_data [31:0] $end
$var wire 32 2" rs1_data [31:0] $end
$var wire 32 3" rdata [31:0] $end
$var wire 32 4" pc_plus4 [31:0] $end
$var wire 32 5" pc_next [31:0] $end
$var wire 32 6" pc_current [31:0] $end
$var wire 32 7" op_b [31:0] $end
$var wire 32 8" op_a [31:0] $end
$var wire 32 9" instr [31:0] $end
$var wire 11 :" imem_addr [10:0] $end
$var wire 11 ;" dmem_addr [10:0] $end
$var wire 1 <" branch_taken $end
$var wire 1 =" alu_zero $end
$var wire 32 >" alu_result [31:0] $end
$var parameter 32 ?" ADDR_WIDTH $end
$var parameter 32 @" DATA_WIDTH $end
$var parameter 128 A" DMEM_FILE $end
$var parameter 136 B" IMEM_FILE $end
$scope module u_alu $end
$var wire 4 C" alu_ctrl [3:0] $end
$var wire 32 D" op_a [31:0] $end
$var wire 32 E" op_b [31:0] $end
$var wire 1 =" alu_zero $end
$var reg 32 F" alu_result [31:0] $end
$upscope $end
$scope module u_branch_comp $end
$var wire 3 G" funct3 [2:0] $end
$var wire 32 H" op2 [31:0] $end
$var wire 32 I" op1 [31:0] $end
$var parameter 3 J" BEQ $end
$var parameter 3 K" BGE $end
$var parameter 3 L" BGEU $end
$var parameter 3 M" BLT $end
$var parameter 3 N" BLTU $end
$var parameter 3 O" BNE $end
$var reg 1 <" branch_taken $end
$upscope $end
$scope module u_dmem $end
$var wire 11 P" addr [10:0] $end
$var wire 1 ( clk $end
$var wire 1 9 mem_read $end
$var wire 1 8 mem_write $end
$var wire 32 Q" wdata [31:0] $end
$var parameter 32 R" ADDR_WIDTH $end
$var parameter 128 S" MEM_FILE $end
$var reg 32 T" rdata [31:0] $end
$upscope $end
$scope module u_imem $end
$var wire 11 U" addr [10:0] $end
$var parameter 32 V" ADDR_WIDTH $end
$var parameter 136 W" MEM_FILE $end
$var reg 32 X" instr [31:0] $end
$upscope $end
$scope module u_next_pc $end
$var wire 1 <" branch_taken $end
$var wire 32 Y" imm_out [31:0] $end
$var wire 1 < is_branch $end
$var wire 1 ; is_jal $end
$var wire 1 : is_jalr $end
$var wire 1 Z" misalign_bits $end
$var wire 32 [" rs1_data [31:0] $end
$var wire 32 \" pc_plus4 [31:0] $end
$var wire 32 ]" pc_next [31:0] $end
$var wire 32 ^" pc_current [31:0] $end
$var wire 32 _" jalr_raw [31:0] $end
$var wire 32 `" jalr_aligned [31:0] $end
$var wire 32 a" branch_jal_pc [31:0] $end
$upscope $end
$scope module u_pc $end
$var wire 1 ( clk $end
$var wire 32 b" next_pc [31:0] $end
$var wire 1 * reset $end
$var reg 32 c" current_pc [31:0] $end
$upscope $end
$scope module u_rf $end
$var wire 1 ( clk $end
$var wire 5 d" rd [4:0] $end
$var wire 32 e" rd_wdata [31:0] $end
$var wire 1 4 reg_write $end
$var wire 1 * reset $end
$var wire 5 f" rs1 [4:0] $end
$var wire 5 g" rs2 [4:0] $end
$var wire 32 h" rs2_data [31:0] $end
$var wire 32 i" rs1_data [31:0] $end
$var integer 32 j" i [31:0] $end
$upscope $end
$upscope $end
$upscope $end
$scope begin end_test $end
$upscope $end
$scope task run_cycles $end
$var integer 32 k" i [31:0] $end
$var integer 32 l" n [31:0] $end
$upscope $end
$upscope $end
$enddefinitions $end
$comment Show the parameter values. $end
$dumpall
b10111000101111011101000110010101110011011101000111001100101111011100100101111101100001011011000111010100101110011011010110010101101101 W"
b1011 V"
b1110011011100100110001100101111011001000110000101110100011000010101111101101101011001010110110100101110011011010110010101101101 S"
b1011 R"
b1 O"
b110 N"
b100 M"
b111 L"
b101 K"
b0 J"
b10111000101111011101000110010101110011011101000111001100101111011100100101111101100001011011000111010100101110011011010110010101101101 B"
b1110011011100100110001100101111011001000110000101110100011000010101111101101101011001010110110100101110011011010110010101101101 A"
b100000 @"
b1011 ?"
b100000 x
b100000 q
b100000 n
b10111000101111011101000110010101110011011101000111001100101111011100100101111101100001011011000111010100101110011011010110010101101101 I
b1110011011100100110001100101111011001000110000101110100011000010101111101101101011001010110110100101110011011010110010101101101 H
b100000 G
b1011 F
b11000000110111101100101011111110 '
b0 &
b10100 %
b10111000101111011101000110010101110011011101000111001100101111011100100101111101100001011011000111010100101110011011010110010101101101 $
b1101111 #
b1011 "
$end
#0
$dumpvars
b101 l"
b0 k"
bx j"
b0 i"
bx h"
b111 g"
b0 f"
b111 e"
b1 d"
b0 c"
b100 b"
b111 a"
b110 `"
b111 _"
b0 ^"
b100 ]"
b100 \"
b0 ["
1Z"
b111 Y"
b11100000000000010010011 X"
b0 U"
b0 T"
bx Q"
b1 P"
b0 I"
bx H"
b0 G"
b111 F"
b111 E"
b0 D"
b0 C"
b111 >"
0="
x<"
b1 ;"
b0 :"
b11100000000000010010011 9"
b0 8"
b111 7"
b0 6"
b100 5"
b100 4"
b0 3"
b0 2"
bx 1"
b111 0"
b0 /"
b111 ."
b0 -"
b1 ,"
b10011 +"
b0 *"
b111 )"
b0 ("
b0 '"
b0 &"
b111 %"
b111 $"
b0 #"
b111 ""
b100000000000 !"
b111 ~
b11100000000000010010011 }
b100000000110 |
b1 {
b11100000000000000000000 z
b0 y
b11100000000000010010011 w
b10011 v
b0 u
b0 t
b0 s
b0 r
b0 p
b11100000000000010010011 o
b0 m
0l
b111 k
b0 j
b11100000000000010010011 i
1h
0g
0f
0e
0d
0c
0b
0a
b0 `
b1 _
b0 ^
b111 ]
b0 \
b0 [
b0 Z
b0 Y
b0 X
b0 W
b111 V
b0 U
b0 T
0S
b111 R
b0 Q
b11100000000000010010011 P
b0 O
b10011 N
b1 M
b0 L
b111 K
b0 J
b0 E
1D
b111 C
b111 B
b0 A
b0 @
b0 ?
b111 >
b11100000000000010010011 =
0<
0;
0:
09
08
b0 7
b10011 6
b1 5
14
b0 3
b111 2
b0 1
b11100000000000010010011 0
b111 /
b0 .
bx -
r0 ,
0+
1*
0)
0(
b0 !
$end
#5000
1<"
b0 1"
b0 H"
b0 Q"
b0 h"
b100000 j"
b1 k"
1(
#10000
0(
#15000
b10 k"
b100000 j"
1(
#20000
0(
#25000
b100000 j"
b11 k"
1(
#30000
0(
#35000
b100 k"
b100000 j"
1(
#40000
0(
#45000
b0 -
0*
b100000 j"
b101 k"
1(
#50000
0(
#55000
b11 0"
b11 e"
b0 ;"
b0 P"
b11 /
b11 B
b11 %"
b11 >"
b11 F"
b11 7"
b11 E"
b10 `"
b11 _"
b11 >
b11 R
b11 k
b11 ""
b11 )"
b11 Y"
b1000 5"
b1000 ]"
b1000 b"
b100000000010 |
b1100000000000000000000 z
b10 !"
b10 {
b11 ~
b11 ]
b10 _
b11 C
b11 V
b11 $"
b11 2
b11 K
b11 ."
b11 g"
b10 5
b10 M
b10 ,"
b10 d"
b1100000000000100010011 0
b1100000000000100010011 =
b1100000000000100010011 P
b1100000000000100010011 i
b1100000000000100010011 o
b1100000000000100010011 w
b1100000000000100010011 }
b1100000000000100010011 9"
b1100000000000100010011 X"
b1 :"
b1 U"
b111 a"
b1000 \"
b1000 4"
b100 !
b100 A
b100 &"
b100 6"
b100 ^"
b100 c"
b1 -
b1 .
1(
#60000
0(
#65000
b1010 0"
b1010 e"
b10 ;"
b10 P"
b1010 /
b1010 B
b1010 %"
b1010 >"
b1010 F"
b110 `"
b111 8"
b111 D"
0<"
b0 >
b0 R
b0 k
b0 ""
b0 )"
b0 Y"
b10 W
b10 Z
b10 m
b10 r
b111 Q
b111 j
b111 s
b111 y
0D
b11 1"
b11 H"
b11 Q"
b11 h"
b111 _"
b111 2"
b111 I"
b111 ["
b111 i"
b1100 5"
b1100 ]"
b1100 b"
b1000000000000010 |
b1000001000000000000000 z
b100000000010 !"
b11 {
b10 ~
1g
0h
b110011 v
b10 ]
b1 ^
b11 _
b10 C
b10 V
b10 $"
b10 2
b10 K
b10 ."
b10 g"
b1 3
b1 L
b1 -"
b1 f"
b11 5
b11 M
b11 ,"
b11 d"
b110011 6
b110011 N
b110011 +"
b1000001000000110110011 0
b1000001000000110110011 =
b1000001000000110110011 P
b1000001000000110110011 i
b1000001000000110110011 o
b1000001000000110110011 w
b1000001000000110110011 }
b1000001000000110110011 9"
b1000001000000110110011 X"
b10 :"
b10 U"
b1000 a"
b1100 \"
b1100 4"
b1000 !
b1000 A
b1000 &"
b1000 6"
b1000 ^"
b1000 c"
b10 -
b10 .
1(
#70000
0(
#75000
b100 0"
b100 e"
b1 ;"
b1 P"
b100 /
b100 B
b100 %"
b100 >"
b100 F"
b1 E
b1 X
b1 [
b1 #"
b1 C"
1S
b10000 5"
b10000 ]"
b10000 b"
b1000010000000010 |
b1000000001000001000000000000000 z
b10000000100 !"
b10000000100 {
b10000000010 ~
b100 _
b10000000010 C
b10000000010 V
b10000000010 $"
b100000 ?
b100000 T
b100000 ("
b100 5
b100 M
b100 ,"
b100 d"
b1000000001000001000001000110011 0
b1000000001000001000001000110011 =
b1000000001000001000001000110011 P
b1000000001000001000001000110011 i
b1000000001000001000001000110011 o
b1000000001000001000001000110011 w
b1000000001000001000001000110011 }
b1000000001000001000001000110011 9"
b1000000001000001000001000110011 X"
b11 :"
b11 U"
b1100 a"
b10000 \"
b10000 4"
b1100 !
b1100 A
b1100 &"
b1100 6"
b1100 ^"
b1100 c"
b11 -
b11 .
1(
#80000
0(
#85000
b11 0"
b11 e"
b0 ;"
b0 P"
b11 /
b11 B
b11 %"
b11 >"
b11 F"
b10 W
b10 Z
b10 m
b10 r
0S
b1001 E
b1001 X
b1001 [
b1001 #"
b1001 C"
1<"
b10100 5"
b10100 ]"
b10100 b"
b1111000000000010 |
b1000001111000000000000 z
b100000000100 !"
b101 {
b10 ~
b111 p
b101 _
b10 C
b10 V
b10 $"
b0 ?
b0 T
b0 ("
b111 @
b111 U
b111 Y
b111 '"
b111 G"
b101 5
b101 M
b101 ,"
b101 d"
b1000001111001010110011 0
b1000001111001010110011 =
b1000001111001010110011 P
b1000001111001010110011 i
b1000001111001010110011 o
b1000001111001010110011 w
b1000001111001010110011 }
b1000001111001010110011 9"
b1000001111001010110011 X"
b100 :"
b100 U"
b10000 a"
b10100 \"
b10100 4"
b10000 !
b10000 A
b10000 &"
b10000 6"
b10000 ^"
b10000 c"
b100 -
b100 .
1(
#90000
0(
#95000
b111 0"
b111 e"
b1 ;"
b1 P"
b111 /
b111 B
b111 %"
b111 >"
b111 F"
b10 W
b10 Z
b10 m
b10 r
b1000 E
b1000 X
b1000 [
b1000 #"
b1000 C"
0<"
b11000 5"
b11000 ]"
b11000 b"
b1110000000000010 |
b1000001110000000000000 z
b110 !"
b110 {
b110 p
b110 _
b110 @
b110 U
b110 Y
b110 '"
b110 G"
b110 5
b110 M
b110 ,"
b110 d"
b1000001110001100110011 0
b1000001110001100110011 =
b1000001110001100110011 P
b1000001110001100110011 i
b1000001110001100110011 o
b1000001110001100110011 w
b1000001110001100110011 }
b1000001110001100110011 9"
b1000001110001100110011 X"
b101 :"
b101 U"
b10100 a"
b11000 \"
b11000 4"
b10100 !
b10100 A
b10100 &"
b10100 6"
b10100 ^"
b10100 c"
b101 -
b101 .
1(
#100000
0(
#105000
b100 0"
b100 e"
b100 /
b100 B
b100 %"
b100 >"
b100 F"
b10 W
b10 Z
b10 m
b10 r
b101 E
b101 X
b101 [
b101 #"
b101 C"
b11100 5"
b11100 ]"
b11100 b"
b1100000000000010 |
b1000001100000000000000 z
b100000000110 !"
b111 {
b100 p
b111 _
b100 @
b100 U
b100 Y
b100 '"
b100 G"
b111 5
b111 M
b111 ,"
b111 d"
b1000001100001110110011 0
b1000001100001110110011 =
b1000001100001110110011 P
b1000001100001110110011 i
b1000001100001110110011 o
b1000001100001110110011 w
b1000001100001110110011 }
b1000001100001110110011 9"
b1000001100001110110011 X"
b110 :"
b110 U"
b11000 a"
b11100 \"
b11100 4"
b11000 !
b11000 A
b11000 &"
b11000 6"
b11000 ^"
b11000 c"
b110 -
b110 .
1(
#110000
0(
#115000
b110000000 0"
b110000000 e"
b1100000 ;"
b1100000 P"
b111 7"
b111 E"
b10 `"
b11 8"
b11 D"
b110000000 /
b110000000 B
b110000000 %"
b110000000 >"
b110000000 F"
b10 W
b10 Z
b10 m
b10 r
b111 1"
b111 H"
b111 Q"
b111 h"
b11 _"
b11 2"
b11 I"
b11 ["
b11 i"
b10 E
b10 X
b10 [
b10 #"
b10 C"
1<"
b100000 5"
b100000 ]"
b100000 b"
b10001100000000000 |
b100010001000000000000 z
b1000 !"
b1000 {
b1 ~
b1 p
b1 ]
b10 ^
b1000 _
b1 C
b1 V
b1 $"
b1 2
b1 K
b1 ."
b1 g"
b10 3
b10 L
b10 -"
b10 f"
b1 @
b1 U
b1 Y
b1 '"
b1 G"
b1000 5
b1000 M
b1000 ,"
b1000 d"
b100010001010000110011 0
b100010001010000110011 =
b100010001010000110011 P
b100010001010000110011 i
b100010001010000110011 o
b100010001010000110011 w
b100010001010000110011 }
b100010001010000110011 9"
b100010001010000110011 X"
b111 :"
b111 U"
b11100 a"
b100000 \"
b100000 4"
b11100 !
b11100 A
b11100 &"
b11100 6"
b11100 ^"
b11100 c"
b111 -
b111 .
1(
#120000
0(
#125000
b0 0"
b0 e"
b0 ;"
b0 P"
b11 7"
b11 E"
b110 `"
b111 8"
b111 D"
1="
b0 /
b0 B
b0 %"
b0 >"
b0 F"
b10 W
b10 Z
b10 m
b10 r
b11 1"
b11 H"
b11 Q"
b11 h"
b111 _"
b111 2"
b111 I"
b111 ["
b111 i"
b110 E
b110 X
b110 [
b110 #"
b110 C"
1<"
b100100 5"
b100100 ]"
b100100 b"
b1101000000000010 |
b1000001101000000000000 z
b100000001000 !"
b1001 {
b10 ~
b101 p
b10 ]
b1 ^
b1001 _
b10 C
b10 V
b10 $"
b10 2
b10 K
b10 ."
b10 g"
b1 3
b1 L
b1 -"
b1 f"
b101 @
b101 U
b101 Y
b101 '"
b101 G"
b1001 5
b1001 M
b1001 ,"
b1001 d"
b1000001101010010110011 0
b1000001101010010110011 =
b1000001101010010110011 P
b1000001101010010110011 i
b1000001101010010110011 o
b1000001101010010110011 w
b1000001101010010110011 }
b1000001101010010110011 9"
b1000001101010010110011 X"
b1000 :"
b1000 U"
b100000 a"
b100100 \"
b100100 4"
b100000 !
b100000 A
b100000 &"
b100000 6"
b100000 ^"
b100000 c"
b1000 -
b1000 .
1(
#130000
0(
#135000
b11111111111111111111111111111111 0"
b11111111111111111111111111111111 e"
b11111111111 ;"
b11111111111 P"
b11111111111111111111111111111111 7"
b11111111111111111111111111111111 E"
b11111111111111111111111111111110 `"
b0 8"
b0 D"
0="
b11111111111111111111111111111111 /
b11111111111111111111111111111111 B
b11111111111111111111111111111111 %"
b11111111111111111111111111111111 >"
b11111111111111111111111111111111 F"
b11111111111111111111111111111111 >
b11111111111111111111111111111111 R
b11111111111111111111111111111111 k
b11111111111111111111111111111111 ""
b11111111111111111111111111111111 )"
b11111111111111111111111111111111 Y"
b0 Q
b0 j
b0 s
b0 y
1D
b0 W
b0 Z
b0 m
b0 r
b0 1"
b0 H"
b0 Q"
b0 h"
b11111111111111111111111111111111 _"
b0 2"
b0 I"
b0 ["
b0 i"
b0 E
b0 X
b0 [
b0 #"
b0 C"
1<"
b101000 5"
b101000 ]"
b101000 b"
b11111111111100000000111111111110 |
b11111111111100000000000000000000 z
b11111111111111111111011111101010 !"
b11111111111111111111111111101010 {
b11111111111111111111111111111111 ~
0g
1h
b10011 v
b0 p
b11111 ]
b0 ^
b1010 _
b111111111111 C
b111111111111 V
b111111111111 $"
b1111111 ?
b1111111 T
b1111111 ("
b11111 2
b11111 K
b11111 ."
b11111 g"
b0 3
b0 L
b0 -"
b0 f"
b0 @
b0 U
b0 Y
b0 '"
b0 G"
b1010 5
b1010 M
b1010 ,"
b1010 d"
b10011 6
b10011 N
b10011 +"
b11111111111100000000010100010011 0
b11111111111100000000010100010011 =
b11111111111100000000010100010011 P
b11111111111100000000010100010011 i
b11111111111100000000010100010011 o
b11111111111100000000010100010011 w
b11111111111100000000010100010011 }
b11111111111100000000010100010011 9"
b11111111111100000000010100010011 X"
b1001 :"
b1001 U"
b100011 a"
b101000 \"
b101000 4"
b100100 !
b100100 A
b100100 &"
b100100 6"
b100100 ^"
b100100 c"
b1001 -
b1001 .
1(
#140000
0(
#145000
b111 E
b111 X
b111 [
b111 #"
b111 C"
b11 7"
b11 E"
b11111111111111111111111111111111 8"
b11111111111111111111111111111111 D"
0<"
1S
b0 >
b0 R
b0 k
b0 ""
b0 )"
b0 Y"
b10 W
b10 Z
b10 m
b10 r
b111 Q
b111 j
b111 s
b111 y
0D
b11 1"
b11 H"
b11 Q"
b11 h"
b11111111111111111111111111111111 _"
b11111111111111111111111111111111 2"
b11111111111111111111111111111111 I"
b11111111111111111111111111111111 ["
b11111111111111111111111111111111 i"
b101100 5"
b101100 ]"
b101100 b"
b1010101010000000010 |
b1000000001001010101000000000000 z
b110000001010 !"
b10000001011 {
b10000000010 ~
1g
0h
b110011 v
b101 p
b10 ]
b1010 ^
b1011 _
b10000000010 C
b10000000010 V
b10000000010 $"
b100000 ?
b100000 T
b100000 ("
b10 2
b10 K
b10 ."
b10 g"
b1010 3
b1010 L
b1010 -"
b1010 f"
b101 @
b101 U
b101 Y
b101 '"
b101 G"
b1011 5
b1011 M
b1011 ,"
b1011 d"
b110011 6
b110011 N
b110011 +"
b1000000001001010101010110110011 0
b1000000001001010101010110110011 =
b1000000001001010101010110110011 P
b1000000001001010101010110110011 i
b1000000001001010101010110110011 o
b1000000001001010101010110110011 w
b1000000001001010101010110110011 }
b1000000001001010101010110110011 9"
b1000000001001010101010110110011 X"
b1010 :"
b1010 U"
b101000 a"
b101100 \"
b101100 4"
b101000 !
b101000 A
b101000 &"
b101000 6"
b101000 ^"
b101000 c"
b1010 -
b1010 .
1(
#150000
0(
#155000
b1 0"
b1 e"
b0 ;"
b0 P"
b111 7"
b111 E"
b10 `"
b11 8"
b11 D"
b1 /
b1 B
b1 %"
b1 >"
b1 F"
b10 W
b10 Z
b10 m
b10 r
0S
b111 1"
b111 H"
b111 Q"
b111 h"
b11 _"
b11 2"
b11 I"
b11 ["
b11 i"
b11 E
b11 X
b11 [
b11 #"
b11 C"
b110000 5"
b110000 ]"
b110000 b"
b10010100000000000 |
b100010010000000000000 z
b1100 !"
b1100 {
b1 ~
b10 p
b1 ]
b10 ^
b1100 _
b1 C
b1 V
b1 $"
b0 ?
b0 T
b0 ("
b1 2
b1 K
b1 ."
b1 g"
b10 3
b10 L
b10 -"
b10 f"
b10 @
b10 U
b10 Y
b10 '"
b10 G"
b1100 5
b1100 M
b1100 ,"
b1100 d"
b100010010011000110011 0
b100010010011000110011 =
b100010010011000110011 P
b100010010011000110011 i
b100010010011000110011 o
b100010010011000110011 w
b100010010011000110011 }
b100010010011000110011 9"
b100010010011000110011 X"
b1011 :"
b1011 U"
b101100 a"
b110000 \"
b110000 4"
b101100 !
b101100 A
b101100 &"
b101100 6"
b101100 ^"
b101100 c"
b1011 -
b1011 .
1(
#160000
0(
#165000
b10 W
b10 Z
b10 m
b10 r
b100 E
b100 X
b100 [
b100 #"
b100 C"
b110100 5"
b110100 ]"
b110100 b"
b10011100000000000 |
b100010011000000000000 z
b100000001100 !"
b1101 {
b11 p
b1101 _
b11 @
b11 U
b11 Y
b11 '"
b11 G"
b1101 5
b1101 M
b1101 ,"
b1101 d"
b100010011011010110011 0
b100010011011010110011 =
b100010011011010110011 P
b100010011011010110011 i
b100010011011010110011 o
b100010011011010110011 w
b100010011011010110011 }
b100010011011010110011 9"
b100010011011010110011 X"
b1100 :"
b1100 U"
b110000 a"
b110100 \"
b110100 4"
b110000 !
b110000 A
b110000 &"
b110000 6"
b110000 ^"
b110000 c"
b1100 -
b1100 .
1(
#170000
0(
#175000
b10000000000 ;"
b10000000000 P"
b11000000110111101101000000000000 0"
b11000000110111101101000000000000 e"
b11000000110111101101000000000000 7"
b11000000110111101101000000000000 E"
b11000000110111101101000000000000 `"
b0 8"
b0 D"
0="
b11000000110111101101000000000000 /
b11000000110111101101000000000000 B
b11000000110111101101000000000000 %"
b11000000110111101101000000000000 >"
b11000000110111101101000000000000 F"
b11000000110111101101000000000000 >
b11000000110111101101000000000000 R
b11000000110111101101000000000000 k
b11000000110111101101000000000000 ""
b11000000110111101101000000000000 )"
b11000000110111101101000000000000 Y"
b10 7
b10 O
b10 `
b10 t
b10 *"
b11 Q
b11 j
b11 s
b11 y
1D
b0 W
b0 Z
b0 m
b0 r
b1 1"
b1 H"
b1 Q"
b1 h"
b11000000110111101101000000000000 _"
b0 2"
b0 I"
b0 ["
b0 i"
b0 E
b0 X
b0 [
b0 #"
b0 C"
b111000 5"
b111000 ]"
b111000 b"
b11111111111111101101110000001100 |
b11000000110111101101000000000000 z
b11111111111111111111110000000100 !"
b11111111111111111111110000000101 {
b11111111111111111111110000001101 ~
0g
1d
b110111 v
b101 p
b1101 ]
b11101 ^
b101 _
b110000001101 C
b110000001101 V
b110000001101 $"
b1100000 ?
b1100000 T
b1100000 ("
b1101 2
b1101 K
b1101 ."
b1101 g"
b11101 3
b11101 L
b11101 -"
b11101 f"
b101 @
b101 U
b101 Y
b101 '"
b101 G"
b101 5
b101 M
b101 ,"
b101 d"
b110111 6
b110111 N
b110111 +"
b11000000110111101101001010110111 0
b11000000110111101101001010110111 =
b11000000110111101101001010110111 P
b11000000110111101101001010110111 i
b11000000110111101101001010110111 o
b11000000110111101101001010110111 w
b11000000110111101101001010110111 }
b11000000110111101101001010110111 9"
b11000000110111101101001010110111 X"
b1101 :"
b1101 U"
b11000000110111101101000000110100 a"
b111000 \"
b111000 4"
b110100 !
b110100 A
b110100 &"
b110100 6"
b110100 ^"
b110100 c"
b1101 -
b1101 .
1(
#180000
0(
