waves/datapath.vcd
$date
	Tue Aug 26 15:19:28 2025
$end
$version
	Icarus Verilog
$end
$timescale
	1ps
$end
$scope module datapath_tb $end
$var wire 32 ! instr [31:0] $end
$var reg 4 " alu_ctrl [3:0] $end
$var reg 1 # alu_src $end
$var reg 1 $ clk $end
$var reg 20 % csr [19:0] $end
$var reg 3 & funct3 [2:0] $end
$var reg 7 ' funct7 [6:0] $end
$var reg 32 ( imm_out [31:0] $end
$var reg 1 ) is_branch $end
$var reg 1 * is_jal $end
$var reg 1 + is_jalr $end
$var reg 1 , mem_read $end
$var reg 1 - mem_write $end
$var reg 2 . op1_sel [1:0] $end
$var reg 7 / opcode [6:0] $end
$var reg 32 0 pc_after [31:0] $end
$var reg 32 1 pc_before [31:0] $end
$var reg 5 2 rd [4:0] $end
$var reg 1 3 reg_write $end
$var reg 1 4 reset $end
$var reg 5 5 rs1 [4:0] $end
$var reg 5 6 rs2 [4:0] $end
$var reg 2 7 wb_sel [1:0] $end
$var integer 32 8 failed [31:0] $end
$var integer 32 9 passed [31:0] $end
$scope function peek_dmem_word $end
$var reg 32 : byte_addr [31:0] $end
$var reg 32 ; word_idx [31:0] $end
$upscope $end
$scope function peek_reg $end
$var reg 5 < idx [4:0] $end
$upscope $end
$scope module uut $end
$var wire 4 = alu_ctrl [3:0] $end
$var wire 1 # alu_src $end
$var wire 1 $ clk $end
$var wire 20 > csr [19:0] $end
$var wire 32 ? debug_alu [31:0] $end
$var wire 32 @ debug_pc [31:0] $end
$var wire 3 A funct3 [2:0] $end
$var wire 7 B funct7 [6:0] $end
$var wire 32 C imm_out [31:0] $end
$var wire 1 ) is_branch $end
$var wire 1 * is_jal $end
$var wire 1 + is_jalr $end
$var wire 1 , mem_read $end
$var wire 1 - mem_write $end
$var wire 2 D op1_sel [1:0] $end
$var wire 7 E opcode [6:0] $end
$var wire 5 F rd [4:0] $end
$var wire 1 3 reg_write $end
$var wire 1 4 reset $end
$var wire 5 G rs1 [4:0] $end
$var wire 5 H rs2 [4:0] $end
$var wire 2 I wb_sel [1:0] $end
$var wire 32 J wb_data [31:0] $end
$var wire 32 K rs2_data [31:0] $end
$var wire 32 L rs1_data [31:0] $end
$var wire 32 M rdata [31:0] $end
$var wire 32 N pc_plus4 [31:0] $end
$var wire 32 O pc_next [31:0] $end
$var wire 32 P pc_current [31:0] $end
$var wire 32 Q op_b [31:0] $end
$var wire 32 R op_a [31:0] $end
$var wire 32 S instr [31:0] $end
$var wire 11 T imem_addr [10:0] $end
$var wire 11 U dmem_addr [10:0] $end
$var wire 1 V branch_taken $end
$var wire 1 W alu_zero $end
$var wire 32 X alu_result [31:0] $end
$var parameter 32 Y ADDR_WIDTH $end
$var parameter 32 Z DATA_WIDTH $end
$var parameter 128 [ DMEM_FILE $end
$var parameter 136 \ IMEM_FILE $end
$scope module u_alu $end
$var wire 4 ] alu_ctrl [3:0] $end
$var wire 32 ^ op_a [31:0] $end
$var wire 32 _ op_b [31:0] $end
$var wire 1 W alu_zero $end
$var reg 32 ` alu_result [31:0] $end
$upscope $end
$scope module u_branch_comp $end
$var wire 3 a funct3 [2:0] $end
$var wire 32 b op2 [31:0] $end
$var wire 32 c op1 [31:0] $end
$var parameter 3 d BEQ $end
$var parameter 3 e BGE $end
$var parameter 3 f BGEU $end
$var parameter 3 g BLT $end
$var parameter 3 h BLTU $end
$var parameter 3 i BNE $end
$var reg 1 V branch_taken $end
$upscope $end
$scope module u_dmem $end
$var wire 11 j addr [10:0] $end
$var wire 1 $ clk $end
$var wire 1 , mem_read $end
$var wire 1 - mem_write $end
$var wire 32 k wdata [31:0] $end
$var parameter 32 l ADDR_WIDTH $end
$var parameter 128 m MEM_FILE $end
$var reg 32 n rdata [31:0] $end
$upscope $end
$scope module u_imem $end
$var wire 11 o addr [10:0] $end
$var parameter 32 p ADDR_WIDTH $end
$var parameter 136 q MEM_FILE $end
$var reg 32 r instr [31:0] $end
$upscope $end
$scope module u_next_pc $end
$var wire 1 V branch_taken $end
$var wire 32 s imm_out [31:0] $end
$var wire 1 ) is_branch $end
$var wire 1 * is_jal $end
$var wire 1 + is_jalr $end
$var wire 1 t misalign_bits $end
$var wire 32 u rs1_data [31:0] $end
$var wire 32 v pc_plus4 [31:0] $end
$var wire 32 w pc_next [31:0] $end
$var wire 32 x pc_current [31:0] $end
$var wire 32 y jalr_raw [31:0] $end
$var wire 32 z jalr_aligned [31:0] $end
$var wire 32 { branch_jal_pc [31:0] $end
$upscope $end
$scope module u_pc $end
$var wire 1 $ clk $end
$var wire 32 | next_pc [31:0] $end
$var wire 1 4 reset $end
$var reg 32 } current_pc [31:0] $end
$upscope $end
$scope module u_rf $end
$var wire 1 $ clk $end
$var wire 5 ~ rd [4:0] $end
$var wire 32 !" rd_wdata [31:0] $end
$var wire 1 3 reg_write $end
$var wire 1 4 reset $end
$var wire 5 "" rs1 [4:0] $end
$var wire 5 #" rs2 [4:0] $end
$var wire 32 $" rs2_data [31:0] $end
$var wire 32 %" rs1_data [31:0] $end
$var integer 32 &" i [31:0] $end
$upscope $end
$upscope $end
$scope task chk $end
$var reg 1 '" cond $end
$var reg 256 (" msg [255:0] $end
$upscope $end
$scope task init_controls $end
$upscope $end
$scope task step $end
$upscope $end
$upscope $end
$enddefinitions $end
$comment Show the parameter values. $end
$dumpall
b111001101110010011000110010111101101001011011100111001101110100011100100101111101101101011001010110110100101110011011010110010101101101 q
b1011 p
b1110011011100100110001100101111011001000110000101110100011000010101111101101101011001010110110100101110011011010110010101101101 m
b1011 l
b1 i
b110 h
b100 g
b111 f
b101 e
b0 d
b111001101110010011000110010111101101001011011100111001101110100011100100101111101101101011001010110110100101110011011010110010101101101 \
b1110011011100100110001100101111011001000110000101110100011000010101111101101101011001010110110100101110011011010110010101101101 [
b100000 Z
b1011 Y
$end
#0
$dumpvars
bx ("
x'"
bx &"
b0 %"
b0 $"
b0 #"
b0 ""
b0 !"
b0 ~
b0 }
b100 |
b0 {
b0 z
b0 y
b0 x
b100 w
b100 v
b0 u
1t
b0 s
b10011 r
b0 o
b0 n
b0 k
b0 j
b0 c
b0 b
b0 a
b0 `
b0 _
b0 ^
b0 ]
b0 X
1W
1V
b0 U
b0 T
b10011 S
b0 R
b0 Q
b0 P
b100 O
b100 N
b0 M
b0 L
b0 K
b0 J
b0 I
b0 H
b0 G
b0 F
b0 E
b0 D
b0 C
b0 B
b0 A
b0 @
b0 ?
b0 >
b0 =
bx <
bx ;
bx :
b0 9
b0 8
b0 7
b0 6
b0 5
14
03
b0 2
bx 1
bx 0
b0 /
b0 .
0-
0,
0+
0*
0)
b0 (
b0 '
b0 &
b0 %
0$
0#
b0 "
b10011 !
$end
#5
b100000 &"
1$
#10
0$
#15
b100000 &"
1$
#16
04
#20
0$
#25
b1000 O
b1000 w
b1000 |
b100011 !
b100011 S
b100011 r
b1 T
b1 o
b100 {
b1000 v
b1000 N
b100 @
b100 P
b100 x
b100 }
1$
#26
b1111011 J
b1111011 !"
b11110 U
b11110 j
0W
b1111011 ?
b1111011 X
b1111011 `
b1111010 z
b1111011 Q
b1111011 _
13
b1111111 {
b1111011 y
b1111011 (
b1111011 C
b1111011 s
1#
b101 2
b101 F
b101 ~
#30
0$
#35
b1100 O
b1100 w
b1100 |
b10010 !
b10010 S
b10010 r
b10 T
b10 o
b10000011 {
b1100 v
b1100 N
b1000 @
b1000 P
b1000 x
b1000 }
1$
#36
b0 J
b0 !"
b0 U
b0 j
1W
b0 ?
b0 X
b0 `
b0 Q
b0 _
b0 z
0#
03
b1000 {
b0 y
b0 (
b0 C
b0 s
b0 2
b0 F
b0 ~
#40
0$
#45
b10000 O
b10000 w
b10000 |
bx !
bx S
bx r
b11 T
b11 o
b1100 {
b10000 v
b10000 N
b1100 @
b1100 P
b1100 x
b1100 }
1$
#46
b10000 J
b10000 !"
b100 U
b100 j
0W
b10000 ?
b10000 X
b10000 `
0V
b10000 z
b10000 Q
b10000 _
b1111011 K
b1111011 b
b1111011 k
b1111011 $"
1-
b11100 {
b10000 y
b10000 (
b10000 C
b10000 s
1#
b101 6
b101 H
b101 #"
b1 9
b111100000110101001000000011110100100000001100010011001000110011001000000111011001101001011000010010000001000001010011000101010100101111010101110100001001011111010000010100110001010101 ("
1'"
b101 <
#50
0$
#55
b10100 O
b10100 w
b10100 |
b100 T
b100 o
b100000 {
b10100 v
b10100 N
b10000 @
b10000 P
b10000 x
b10000 }
1$
#56
b0 J
b0 !"
b0 U
b0 j
1W
b0 ?
b0 X
b0 `
1V
b0 Q
b0 _
b0 z
b0 K
b0 b
b0 k
b0 $"
0#
0-
b10000 {
b0 y
b0 (
b0 C
b0 s
b0 6
b0 H
b0 #"
#60
0$
#65
b11000 O
b11000 w
b11000 |
b101 T
b101 o
b10100 {
b11000 v
b11000 N
b10100 @
b10100 P
b10100 x
b10100 }
1$
#66
b100 U
b100 j
0W
b10000 ?
b10000 X
b10000 `
b1111011 J
b1111011 !"
b1111011 M
b1111011 n
b10000 z
b10000 Q
b10000 _
13
b1 7
b1 I
1,
b100100 {
b10000 y
b10000 (
b10000 C
b10000 s
1#
b110 2
b110 F
b110 ~
b10 9
b1000100010011010100010101001101010110110011000001111000001100010011000001011101001000000011110100100000001100010011001000110011001000000110000101100110011101000110010101110010001000000111001101110100011011110111001001100101 ("
b100 ;
b10000 :
#70
0$
#75
b11100 O
b11100 w
b11100 |
b110 T
b110 o
b101000 {
b11100 v
b11100 N
b11000 @
b11000 P
b11000 x
b11000 }
1$
#76
b0 U
b0 j
1W
b0 ?
b0 X
b0 `
b0 J
b0 !"
b0 M
b0 n
b0 Q
b0 _
b0 z
b0 7
b0 I
0#
0,
03
b11000 {
b0 y
b0 (
b0 C
b0 s
b0 2
b0 F
b0 ~
#80
0$
#85
b100000 O
b100000 w
b100000 |
b111 T
b111 o
b11100 {
b100000 v
b100000 N
b11100 @
b11100 P
b11100 x
b11100 }
1$
#86
b11100 O
b11100 w
b11100 |
b11110110 J
b11110110 !"
b111101 U
b111101 j
0W
b11110110 ?
b11110110 X
b11110110 `
b1111011 Q
b1111011 _
b1111010 z
b1111011 R
b1111011 ^
b1111011 K
b1111011 b
b1111011 k
b1111011 $"
b1111011 y
b1111011 L
b1111011 c
b1111011 u
b1111011 %"
1)
b110 6
b110 H
b110 #"
b110 5
b110 G
b110 ""
b11 9
b11110000011011000100000001111010010000000110001001100100011001100100000011101100110100101100001001000000110110001101111011000010110010000101111010101110100001001011111010011010100010101001101 ("
b110 <
#90
0$
#95
1$
#96
b100000 O
b100000 w
b100000 |
b10000010 J
b10000010 !"
b100000 U
b100000 j
b10000010 ?
b10000010 X
b10000010 `
0V
b10000010 z
b111 Q
b111 _
b0 K
b0 b
b0 k
b0 $"
13
b100011 {
b10000010 y
b111 (
b111 C
b111 s
1#
b111 2
b111 F
b111 ~
0)
b0 6
b0 H
b0 #"
b101 5
b101 G
b101 ""
#100
0$
#105
b100100 O
b100100 w
b100100 |
b1000 T
b1000 o
b100111 {
b100100 v
b100100 N
b100000 @
b100000 P
b100000 x
b100000 }
1$
#106
b0 J
b0 !"
b0 U
b0 j
1W
b0 ?
b0 X
b0 `
b0 R
b0 ^
1V
b0 Q
b0 _
b0 z
b0 L
b0 c
b0 u
b0 %"
0#
03
b100000 {
b0 y
b0 (
b0 C
b0 s
b0 5
b0 G
b0 ""
b0 2
b0 F
b0 ~
#110
0$
#115
b101000 O
b101000 w
b101000 |
b1001 T
b1001 o
b100100 {
b101000 v
b101000 N
b100100 @
b100100 P
b100100 x
b100100 }
1$
#116
b111 J
b111 !"
b1 U
b1 j
0W
b111 ?
b111 X
b111 `
b1111011 Q
b1111011 _
b10000010 z
b10000010 R
b10000010 ^
0V
b1111011 K
b1111011 b
b1111011 k
b1111011 $"
b10000010 y
b10000010 L
b10000010 c
b10000010 u
b10000010 %"
13
b1 "
b1 =
b1 ]
b1000 2
b1000 F
b1000 ~
b101 6
b101 H
b101 #"
b111 5
b111 G
b111 ""
b100 9
b10000010100110001010101001000000100000101000100010001000100100100111010001000000111100000110111001000000011110100100000001100010011001100110000 ("
b111 <
#120
0$
#125
b101100 O
b101100 w
b101100 |
b1010 T
b1010 o
b101000 {
b101100 v
b101100 N
b101000 @
b101000 P
b101000 x
b101000 }
1$
#126
1W
b0 J
b0 !"
b0 U
b0 j
b0 Q
b0 _
b0 z
b0 R
b0 ^
1V
b0 ?
b0 X
b0 `
b0 K
b0 b
b0 k
b0 $"
b0 y
b0 L
b0 c
b0 u
b0 %"
03
b0 "
b0 =
b0 ]
b0 6
b0 H
b0 #"
b0 5
b0 G
b0 ""
b0 2
b0 F
b0 ~
#130
0$
#135
b110000 O
b110000 w
b110000 |
b1011 T
b1011 o
b101100 {
b110000 v
b110000 N
b101100 @
b101100 P
b101100 x
b101100 }
1$
#136
b1011 J
b1011 !"
b10 U
b10 j
0W
b1011 ?
b1011 X
b1011 `
b1111011 R
b1111011 ^
0V
b10001010 z
b1111 Q
b1111 _
b1111011 L
b1111011 c
b1111011 u
b1111011 %"
13
b111011 {
b10001010 y
b1111 (
b1111 C
b1111 s
1#
b1001 "
b1001 =
b1001 ]
b1001 2
b1001 F
b1001 ~
b101 5
b101 G
b101 ""
b101 9
b10000010100110001010101001000000101001101010101010000100011101000100000011110000011100000100000001111010010000000110111 ("
b1000 <
#140
0$
#145
b110100 O
b110100 w
b110100 |
b1100 T
b1100 o
b111111 {
b110100 v
b110100 N
b110000 @
b110000 P
b110000 x
b110000 }
1$
#146
1W
b0 J
b0 !"
b0 U
b0 j
b0 R
b0 ^
1V
b0 Q
b0 _
b0 z
b0 ?
b0 X
b0 `
b0 L
b0 c
b0 u
b0 %"
0#
03
b110000 {
b0 y
b0 (
b0 C
b0 s
b0 "
b0 =
b0 ]
b0 5
b0 G
b0 ""
b0 2
b0 F
b0 ~
#150
0$
#155
b111000 O
b111000 w
b111000 |
b1101 T
b1101 o
b110100 {
b111000 v
b111000 N
b110100 @
b110100 P
b110100 x
b110100 }
1$
#156
b111101100 J
b111101100 !"
b1111011 U
b1111011 j
0W
b111101100 ?
b111101100 X
b111101100 `
b1111011 R
b1111011 ^
0V
b1111100 z
b10 Q
b10 _
b1111011 L
b1111011 c
b1111011 u
b1111011 %"
13
b110110 {
b1111101 y
b10 (
b10 C
b10 s
1#
b10 "
b10 =
b10 ]
b1010 2
b1010 F
b1010 ~
b101 5
b101 G
b101 ""
b110 9
b100000101001100010101010010000001000001010011100100010001001001001110100010000001111000001110010010000000111101001000000011000100110001 ("
b1001 <
#160
0$
#165
b111100 O
b111100 w
b111100 |
b1110 T
b1110 o
b111010 {
b111100 v
b111100 N
b111000 @
b111000 P
b111000 x
b111000 }
1$
#166
1W
b0 J
b0 !"
b0 U
b0 j
b0 R
b0 ^
1V
b0 Q
b0 _
b0 z
b0 ?
b0 X
b0 `
b0 L
b0 c
b0 u
b0 %"
0#
03
b111000 {
b0 y
b0 (
b0 C
b0 s
b0 "
b0 =
b0 ]
b0 5
b0 G
b0 ""
b0 2
b0 F
b0 ~
#170
0$
#175
b1000000 O
b1000000 w
b1000000 |
b1111 T
b1111 o
b111100 {
b1000000 v
b1000000 N
b111100 @
b111100 P
b111100 x
b111100 }
1$
#176
b11110110 J
b11110110 !"
b111101 U
b111101 j
0W
b11110110 ?
b11110110 X
b11110110 `
b111101100 z
b111101100 R
b111101100 ^
0V
b1 Q
b1 _
b111101100 L
b111101100 c
b111101100 u
b111101100 %"
13
b111101 {
b111101101 y
b1 (
b1 C
b1 s
1#
b110 "
b110 =
b110 ]
b1011 2
b1011 F
b1011 ~
b1010 5
b1010 G
b1010 ""
b111 9
b1000001010011000101010100100000010100110100110001001100010010010011101000100000011110000011000100110000001000000011110100100000001101000011100100110010 ("
b1010 <
#180
0$
#185
b1000100 O
b1000100 w
b1000100 |
b10000 T
b10000 o
b1000001 {
b1000100 v
b1000100 N
b1000000 @
b1000000 P
b1000000 x
b1000000 }
1$
#186
1W
b0 J
b0 !"
b0 U
b0 j
b0 z
b0 R
b0 ^
1V
b0 Q
b0 _
b0 ?
b0 X
b0 `
b0 L
b0 c
b0 u
b0 %"
0#
03
b1000000 {
b0 y
b0 (
b0 C
b0 s
b0 "
b0 =
b0 ]
b0 5
b0 G
b0 ""
b0 2
b0 F
b0 ~
#190
0$
#195
b1001000 O
b1001000 w
b1001000 |
b10001 T
b10001 o
b1000100 {
b1001000 v
b1001000 N
b1000100 @
b1000100 P
b1000100 x
b1000100 }
1$
#196
b11111111111111111111111110000000 J
b11111111111111111111111110000000 !"
b11111100000 U
b11111100000 j
0W
b11111111111111111111111110000000 ?
b11111111111111111111111110000000 X
b11111111111111111111111110000000 `
b11111111111111111111111110000000 z
b11111111111111111111111110000000 Q
b11111111111111111111111110000000 _
13
b11111111111111111111111111000100 {
b11111111111111111111111110000000 y
b11111111111111111111111110000000 (
b11111111111111111111111110000000 C
b11111111111111111111111110000000 s
1#
b1100 2
b1100 F
b1100 ~
b1000 9
b1000001010011000101010100100000010100110101001001001100010010010011101000100000011110000011000100110001001000000011110100100000001100100011010000110110 ("
b1011 <
#200
0$
#205
b1001100 O
b1001100 w
b1001100 |
b10010 T
b10010 o
b11111111111111111111111111001000 {
b1001100 v
b1001100 N
b1001000 @
b1001000 P
b1001000 x
b1001000 }
1$
#206
b0 J
b0 !"
b0 U
b0 j
1W
b0 ?
b0 X
b0 `
b0 Q
b0 _
b0 z
0#
03
b1001000 {
b0 y
b0 (
b0 C
b0 s
b0 2
b0 F
b0 ~
#210
0$
#215
b1010000 O
b1010000 w
b1010000 |
b10011 T
b10011 o
b1001100 {
b1010000 v
b1010000 N
b1001100 @
b1001100 P
b1001100 x
b1001100 }
1$
#216
b11111111111111111111111111100000 J
b11111111111111111111111111100000 !"
b11111111000 U
b11111111000 j
0W
b11111111111111111111111111100000 ?
b11111111111111111111111111100000 X
b11111111111111111111111111100000 `
b11111111111111111111111110000000 R
b11111111111111111111111110000000 ^
0V
b11111111111111111111111110000010 z
b10 Q
b10 _
b11111111111111111111111110000000 L
b11111111111111111111111110000000 c
b11111111111111111111111110000000 u
b11111111111111111111111110000000 %"
13
b1001110 {
b11111111111111111111111110000010 y
b10 (
b10 C
b10 s
1#
b111 "
b111 =
b111 ]
b1101 2
b1101 F
b1101 ~
b1100 5
b1100 G
b1100 ""
b1001 9
b1010000011100100110010101110000001110100010000001111000001100010011001000100000001111010010000000101101001100010011001000111000 ("
b1100 <
#220
0$
#225
b1010100 O
b1010100 w
b1010100 |
b10100 T
b10100 o
b1010010 {
b1010100 v
b1010100 N
b1010000 @
b1010000 P
b1010000 x
b1010000 }
1$
#226
1W
b0 J
b0 !"
b0 U
b0 j
b0 R
b0 ^
1V
b0 Q
b0 _
b0 z
b0 ?
b0 X
b0 `
b0 L
b0 c
b0 u
b0 %"
0#
03
b1010000 {
b0 y
b0 (
b0 C
b0 s
b0 "
b0 =
b0 ]
b0 5
b0 G
b0 ""
b0 2
b0 F
b0 ~
#230
0$
#235
b1011000 O
b1011000 w
b1011000 |
b10101 T
b10101 o
b1010100 {
b1011000 v
b1011000 N
b1010100 @
b1010100 P
b1010100 x
b1010100 }
1$
#236
b1010100 1
b1010 9
b10000010100110001010101001000000101001101010010010000010100100100111010001000000111100000110001001100110010000000111101001000000011000001111000010001100100011001000110010001100101111101000110010001100100010100110000 ("
b1101 <
#240
0$
#245
b1011100 O
b1011100 w
b1011100 |
b10110 T
b10110 o
b1011000 {
b1011100 v
b1011100 N
b1011000 @
b1011000 P
b1011000 x
b1011000 }
1$
#250
0$
#255
b1100000 O
b1100000 w
b1100000 |
b10111 T
b10111 o
b1011100 {
b1100000 v
b1100000 N
b1011100 @
b1011100 P
b1011100 x
b1011100 }
1$
#256
b1101100 O
b1101100 w
b1101100 |
b11110110 J
b11110110 !"
b111101 U
b111101 j
0W
b11110110 ?
b11110110 X
b11110110 `
b1111011 Q
b1111011 _
b1111011 R
b1111011 ^
b10001010 z
b1111011 K
b1111011 b
b1111011 k
b1111011 $"
b1111011 L
b1111011 c
b1111011 u
b1111011 %"
b1011100 1
b1101100 {
b10001011 y
b10000 (
b10000 C
b10000 s
1)
b110 6
b110 H
b110 #"
b110 5
b110 G
b110 ""
b1011 9
b1010000010000110010000001100001011001000111011001100001011011100110001101100101011001000010000001100010011110010010000001110100011101110110111100100000011000110111100101100011011011000110010101110011001000000110111101100110001000000010101100110100 ("
b1011100 0
#260
0$
#265
b1111100 O
b1111100 w
b1111100 |
b11011 T
b11011 o
b1111100 {
b1110000 v
b1110000 N
b1101100 @
b1101100 P
b1101100 x
b1101100 }
1$
#266
b0 J
b0 !"
b0 U
b0 j
b1110000 O
b1110000 w
b1110000 |
1W
b0 ?
b0 X
b0 `
b0 Q
b0 _
b0 R
b0 ^
b0 z
b0 K
b0 b
b0 k
b0 $"
b0 L
b0 c
b0 u
b0 %"
0)
b1101100 {
b0 y
b0 (
b0 C
b0 s
b0 6
b0 H
b0 #"
b0 5
b0 G
b0 ""
#270
0$
#275
b1110100 O
b1110100 w
b1110100 |
b11100 T
b11100 o
b1110000 {
b1110100 v
b1110100 N
b1110000 @
b1110000 P
b1110000 x
b1110000 }
1$
#276
b11110110 J
b11110110 !"
b111101 U
b111101 j
0W
b11110110 ?
b11110110 X
b11110110 `
b1111011 Q
b1111011 _
b1111011 R
b1111011 ^
b10010010 z
0V
b1111011 K
b1111011 b
b1111011 k
b1111011 $"
b1111011 L
b1111011 c
b1111011 u
b1111011 %"
b1110000 1
b10001000 {
b10010011 y
b11000 (
b11000 C
b11000 s
1)
b1 &
b1 A
b1 a
b101 6
b101 H
b101 #"
b101 5
b101 G
b101 ""
b1100 9
b110101101100101011011100011101000100000010100000100001100100000011010100111010101101101011100000110010101100100001000000110001001111001001000000110100101101101011011010010000000101000001010110010000001101111011011100110010100100000001010110011010000101001 ("
b1110000 0
#280
0$
#285
b1111000 O
b1111000 w
b1111000 |
b11101 T
b11101 o
b10001100 {
b1111000 v
b1111000 N
b1110100 @
b1110100 P
b1110100 x
b1110100 }
1$
#286
b0 J
b0 !"
b0 U
b0 j
1W
b0 ?
b0 X
b0 `
b0 Q
b0 _
b0 R
b0 ^
b0 z
b0 K
b0 b
b0 k
b0 $"
b0 L
b0 c
b0 u
b0 %"
1V
0)
b1110100 {
b0 y
b0 (
b0 C
b0 s
b0 6
b0 H
b0 #"
b0 5
b0 G
b0 ""
b0 &
b0 A
b0 a
#290
0$
#295
b1111100 O
b1111100 w
b1111100 |
b11110 T
b11110 o
b1111000 {
b1111100 v
b1111100 N
b1111000 @
b1111000 P
b1111000 x
b1111000 }
1$
#296
b1111100 J
b1111100 !"
b10100000 O
b10100000 w
b10100000 |
b101000 z
b1111000 1
b10100000 {
b101000 y
b101000 (
b101000 C
b101000 s
1*
13
b10 7
b10 I
b1 2
b1 F
b1 ~
b1101 9
b100001100100000011000010110010001110110011000010110111001100011011001010110010000100000011000100111100100100000001010110011100000100000011011110111011001100101011100100010000001110100011101110110111100100000011000110111100101100011011011000110010101110011 ("
b1111000 0
#300
0$
#305
b10100100 J
b10100100 !"
b11001000 O
b11001000 w
b11001000 |
b101000 T
b101000 o
b11001000 {
b10100100 v
b10100100 N
b10100000 @
b10100000 P
b10100000 x
b10100000 }
1$
#306
b10100100 O
b10100100 w
b10100100 |
b0 J
b0 !"
b0 z
0*
b0 7
b0 I
03
b10100000 {
b0 y
b0 (
b0 C
b0 s
b0 2
b0 F
b0 ~
#310
0$
#315
b10101000 O
b10101000 w
b10101000 |
b101001 T
b101001 o
b10100100 {
b10101000 v
b10101000 N
b10100100 @
b10100100 P
b10100100 x
b10100100 }
1$
#316
b11110 U
b11110 j
b10101000 J
b10101000 !"
0W
b1111011 ?
b1111011 X
b1111011 `
b1111011 R
b1111011 ^
0V
b10000010 O
b10000010 w
b10000010 |
b10000010 z
b1111011 L
b1111011 c
b1111011 u
b1111011 %"
b10100100 1
1+
13
b10 7
b10 I
b10101100 {
b10000011 y
b1000 (
b1000 C
b1000 s
b101 5
b101 G
b101 ""
b10 2
b10 F
b10 ~
b1111 9
b100101001000001010011000011101000100000010100000100001100100000011010100111010101101101011100000110010101100100001000000110001001111001001000000110100101101101011011010010000000101000001010110010000001101111011011100110010100100000001010110011010000101001 ("
b1 <
b10100100 0
#320
0$
#325
b10000110 J
b10000110 !"
b100000 T
b100000 o
b10001010 {
b10000110 v
b10000110 N
b10000010 @
b10000010 P
b10000010 x
b10000010 }
1$
#326
b0 U
b0 j
1W
b0 ?
b0 X
b0 `
b0 R
b0 ^
1V
b10000110 O
b10000110 w
b10000110 |
b0 J
b0 !"
b0 z
b0 L
b0 c
b0 u
b0 %"
0+
b0 7
b0 I
03
b10000010 {
b0 y
b0 (
b0 C
b0 s
b0 5
b0 G
b0 ""
b0 2
b0 F
b0 ~
#330
0$
#335
b10001010 O
b10001010 w
b10001010 |
b100001 T
b100001 o
b10000110 {
b10001010 v
b10001010 N
b10000110 @
b10000110 P
b10000110 x
b10000110 }
1$
#336
b10001 9
b100110001010010001110100010000001010000010000110010000000111101001000000010100001110010011100110011000100101011011010010110110101101101001010010010011001111110001100010010000000101000001010110010000001101111011011100110010100100000001010110011010000101001 ("
b10 <
b10000110 0
